<?xml version="1.0" encoding="UTF-8"?>
<svg width="50px" height="50px" viewBox="0 0 50 50" version="1.1" xmlns="http://www.w3.org/2000/svg" xmlns:xlink="http://www.w3.org/1999/xlink">
    <!-- Generator: Sketch 48.1 (47250) - http://www.bohemiancoding.com/sketch -->
    <title>Slice</title>
    <desc>Created with Sketch.</desc>
    <defs></defs>
    <g id="Page-1" stroke="none" stroke-width="1" fill="none" fill-rule="evenodd">
        <g id="ambulance-(1)" transform="translate(0.000000, 9.000000)" fill-rule="nonzero">
            <path d="M49.8435065,27.0980519 L47.7320346,8.79805195 C47.3997835,5.92402597 44.7761905,3.58571429 41.8835498,3.58571429 L17.4909091,3.58571429 L17.4909091,0.962121212 C17.4909091,0.479220779 17.0997835,0.0876623377 16.6164502,0.0876623377 L13.1181818,0.0876623377 C12.6348485,0.0876623377 12.2437229,0.479220779 12.2437229,0.962121212 L12.2437229,3.58571429 L9.61991342,3.58571429 C9.3021645,3.58571429 9.00930736,3.75822511 8.8547619,4.03658009 C8.83160173,4.07857143 8.28095238,5.07510823 7.57294372,6.53593074 C7.41839827,6.85627706 7.41666667,7.21493506 7.56948052,7.52012987 C7.83073593,8.04047619 8.40844156,8.23419913 9.24307359,8.41060606 L5.59761905,14.9722944 C5.54047619,14.9621212 5.48376623,14.9547619 5.42337662,14.9547619 C3.36233766,14.9549784 0,16.9872294 0,18.5924242 L0,27.1987013 C0,27.6816017 0.391125541,28.0731602 0.874458874,28.0731602 L5.32619048,28.0731602 C5.74458874,30.5508658 7.8995671,32.4458874 10.4945887,32.4458874 C13.0896104,32.4458874 15.2445887,30.5508658 15.662987,28.0731602 L31.5627706,28.0731602 C31.9811688,30.5508658 34.1359307,32.4458874 36.7311688,32.4458874 C39.3261905,32.4458874 41.4811688,30.5508658 41.8995671,28.0731602 L48.9748918,28.0731602 C49.2242424,28.0731602 49.4616883,27.9668831 49.6274892,27.7805195 C49.7939394,27.5943723 49.8727273,27.3458874 49.8435065,27.0980519 Z M13.9926407,1.83679654 L15.7417749,1.83679654 L15.7417749,3.58593074 L13.9926407,3.58593074 L13.9926407,1.83679654 Z M11.0363636,8.78354978 C12.2004329,9.06233766 13.3926407,9.4961039 13.8969697,10.3707792 C14.2660173,11.0116883 14.2530303,11.9119048 13.8593074,13.045671 C13.2854978,14.695671 12.4534632,15.7517316 11.3859307,16.1835498 C9.97619048,16.754329 8.34480519,16.2069264 7.1995671,15.6900433 L11.0363636,8.78354978 Z M10.4945887,30.6967532 C8.56515152,30.6967532 6.99632035,29.1274892 6.99632035,27.1984848 C6.99632035,25.2694805 8.56515152,23.7002165 10.4945887,23.7002165 C12.424026,23.7002165 13.9928571,25.2694805 13.9928571,27.1984848 C13.9926407,29.1274892 12.4238095,30.6967532 10.4945887,30.6967532 Z M36.7309524,30.6967532 C34.8015152,30.6967532 33.232684,29.1274892 33.232684,27.1984848 C33.232684,25.2694805 34.8015152,23.7002165 36.7309524,23.7002165 C38.6603896,23.7002165 40.2292208,25.2694805 40.2292208,27.1984848 C40.2292208,29.1274892 38.6603896,30.6967532 36.7309524,30.6967532 Z M41.9056277,26.3235931 L41.9056277,26.324026 C41.9021645,26.3038961 41.8939394,26.2857143 41.8902597,26.265368 C41.8422078,25.9991342 41.7735931,25.7406926 41.687013,25.4900433 C41.6709957,25.4439394 41.6541126,25.3991342 41.637013,25.3536797 C41.5426407,25.1036797 41.432684,24.8619048 41.3030303,24.6318182 C41.2841991,24.5984848 41.262987,24.5668831 41.2435065,24.5337662 C41.1025974,24.2961039 40.9478355,24.0675325 40.7725108,23.8556277 C40.7677489,23.8497835 40.7623377,23.8448052 40.7575758,23.8391775 C40.5811688,23.628355 40.3863636,23.4341991 40.1796537,23.2532468 C40.1564935,23.2329004 40.1350649,23.2112554 40.1112554,23.191342 C39.9080087,23.0194805 39.6896104,22.8660173 39.4614719,22.7264069 C39.4231602,22.7028139 39.3854978,22.6790043 39.3463203,22.6564935 C39.1186147,22.5248918 38.8807359,22.4106061 38.6333333,22.3138528 C38.5900433,22.2969697 38.5463203,22.2818182 38.5025974,22.2660173 C38.2484848,22.1744589 37.987013,22.0991342 37.7164502,22.047619 C37.6818182,22.0411255 37.6467532,22.0376623 37.6119048,22.0316017 C37.3248918,21.982684 37.0318182,21.9515152 36.7311688,21.9515152 C36.4305195,21.9515152 36.1374459,21.982684 35.8504329,22.0313853 C35.8155844,22.0372294 35.7805195,22.0406926 35.7458874,22.0474026 C35.4753247,22.0991342 35.2138528,22.1742424 34.9595238,22.2658009 C34.9158009,22.2816017 34.8722944,22.2967532 34.8292208,22.3136364 C34.5818182,22.4103896 34.3437229,22.5246753 34.1160173,22.6562771 C34.0768398,22.6787879 34.0393939,22.7025974 34.0008658,22.7261905 C33.7729437,22.8660173 33.5545455,23.0194805 33.3510823,23.1911255 C33.3274892,23.211039 33.3060606,23.2329004 33.282684,23.2530303 C33.0757576,23.4339827 32.8811688,23.6281385 32.7047619,23.838961 C32.7,23.8448052 32.6945887,23.8497835 32.6898268,23.8554113 C32.5142857,24.067316 32.3595238,24.2963203 32.2183983,24.5341991 C32.1989177,24.5668831 32.1781385,24.5980519 32.1595238,24.6311688 C32.0296537,24.8614719 31.9194805,25.1032468 31.8251082,25.3534632 C31.8077922,25.3989177 31.7911255,25.4437229 31.7751082,25.4898268 C31.6883117,25.7404762 31.619697,25.9991342 31.5718615,26.2651515 C31.5681818,26.2852814 31.5599567,26.3034632 31.5564935,26.3238095 L15.6692641,26.3238095 C15.6658009,26.3036797 15.6575758,26.2854978 15.6538961,26.2651515 C15.6058442,25.9991342 15.5372294,25.7404762 15.4506494,25.4898268 C15.434632,25.4437229 15.4177489,25.3989177 15.4006494,25.3534632 C15.3062771,25.1034632 15.1963203,24.8616883 15.0666667,24.6316017 C15.0478355,24.5982684 15.0266234,24.5666667 15.0071429,24.5335498 C14.8662338,24.2958874 14.7114719,24.067316 14.5361472,23.8554113 C14.5313853,23.8495671 14.525974,23.8445887 14.5212121,23.838961 C14.3448052,23.6281385 14.15,23.4339827 13.94329,23.2530303 C13.9201299,23.232684 13.8987013,23.211039 13.8748918,23.1911255 C13.671645,23.0192641 13.4532468,22.8658009 13.2251082,22.7261905 C13.1867965,22.7025974 13.1491342,22.6787879 13.1099567,22.6562771 C12.8822511,22.5246753 12.6443723,22.4103896 12.3969697,22.3136364 C12.3536797,22.2967532 12.3099567,22.2816017 12.2662338,22.2658009 C12.0121212,22.1742424 11.7506494,22.0989177 11.4800866,22.0474026 C11.4454545,22.0409091 11.4103896,22.0374459 11.3755411,22.0313853 C11.0885281,21.982684 10.7954545,21.9515152 10.4948052,21.9515152 C10.1941558,21.9515152 9.90108225,21.982684 9.61406926,22.0313853 C9.57922078,22.0372294 9.54415584,22.0406926 9.50952381,22.0474026 C9.23896104,22.0991342 8.97748918,22.1742424 8.72316017,22.2658009 C8.67943723,22.2816017 8.63593074,22.2967532 8.59285714,22.3136364 C8.34545455,22.4103896 8.10735931,22.5246753 7.87965368,22.6562771 C7.84047619,22.6787879 7.8030303,22.7025974 7.76450216,22.7261905 C7.53658009,22.8660173 7.31818182,23.0194805 7.11471861,23.1911255 C7.09112554,23.211039 7.06969697,23.2329004 7.04632035,23.2530303 C6.83939394,23.4339827 6.64480519,23.6281385 6.46839827,23.838961 C6.46363636,23.8448052 6.45822511,23.8497835 6.4534632,23.8554113 C6.27792208,24.067316 6.12316017,24.2963203 5.98203463,24.5341991 C5.96255411,24.5668831 5.94177489,24.5980519 5.92316017,24.6311688 C5.79329004,24.8614719 5.68311688,25.1032468 5.58874459,25.3534632 C5.57142857,25.3989177 5.5547619,25.4437229 5.53874459,25.4898268 C5.45194805,25.7404762 5.38333333,25.9991342 5.33549784,26.2651515 C5.33181818,26.2854978 5.32359307,26.3036797 5.32012987,26.3238095 L1.7482684,26.3238095 L1.73896104,18.674026 C1.91233766,18.1820346 3.83484848,16.7891775 5.29177489,16.7075758 C5.36774892,16.7430736 5.46688312,16.7945887 5.58484848,16.8545455 C6.75822511,17.445671 9.50822511,18.8294372 12.0424242,17.8045455 C13.597619,17.1751082 14.7651515,15.7670996 15.5114719,13.6201299 C16.080303,11.984632 16.0469697,10.597619 15.4123377,9.49718615 C14.3268398,7.61493506 11.8175325,7.13138528 10.1564935,6.81168831 C9.93787879,6.76969697 9.67987013,6.71991342 9.45606061,6.67034632 C9.73614719,6.10930736 9.97619048,5.64761905 10.1428571,5.33463203 L41.8835498,5.33463203 C43.9170996,5.33463203 45.761039,6.97835498 45.9950216,8.99848485 L47.9935065,26.3235931 L41.9056277,26.3235931 Z" id="Shape" fill="#0A1099"></path>
            <path d="M29.734632,8.83311688 L24.4874459,8.83311688 L24.4874459,12.3313853 L20.9891775,12.3313853 L20.9891775,17.5785714 L24.4874459,17.5785714 L24.4874459,21.0768398 L29.734632,21.0768398 L29.734632,17.5785714 L33.2329004,17.5785714 L33.2329004,12.3313853 L29.734632,12.3313853 L29.734632,8.83311688 Z M31.4837662,14.0805195 L31.4837662,15.8294372 L27.9854978,15.8294372 L27.9854978,19.3277056 L26.2363636,19.3277056 L26.2363636,15.8294372 L22.7380952,15.8294372 L22.7380952,14.080303 L26.2363636,14.080303 L26.2363636,10.5822511 L27.9854978,10.5822511 L27.9854978,14.0805195 L31.4837662,14.0805195 Z" id="Shape" fill="#F5164D"></path>
        </g>
    </g>
</svg>